<?xml version="1.0" encoding="UTF-8" standalone="no"?>
<!DOCTYPE svg PUBLIC "-//W3C//DTD SVG 1.1//EN"
 "http://www.w3.org/Graphics/SVG/1.1/DTD/svg11.dtd">
<!-- Generated by graphviz version 2.40.1 (20161225.0304)
 -->
<!-- Title: dependencies Pages: 1 -->
<svg width="1213pt" height="211pt"
 viewBox="0.00 0.00 1213.00 211.00" xmlns="http://www.w3.org/2000/svg" xmlns:xlink="http://www.w3.org/1999/xlink">
<g id="graph0" class="graph" transform="scale(1 1) rotate(0) translate(4 207)">
<title>dependencies</title>
<polygon fill="#ffffff" stroke="transparent" points="-4,4 -4,-207 1209,-207 1209,4 -4,4"/>
<text text-anchor="start" x="581.5091" y="-42.4" font-family="sans-serif" font-weight="bold" font-size="14.00" fill="#000000">Legend</text>
<polygon fill="#ffffb3" stroke="transparent" points="368.5,-10 368.5,-30 388.5,-30 388.5,-10 368.5,-10"/>
<text text-anchor="start" x="392.129" y="-15.4" font-family="sans-serif" font-size="14.00" fill="#000000"> &#160;Declarations</text>
<polygon fill="#8dd3c7" stroke="transparent" points="481.5,-10 481.5,-30 501.5,-30 501.5,-10 481.5,-10"/>
<text text-anchor="start" x="505.2251" y="-15.4" font-family="sans-serif" font-size="14.00" fill="#000000"> &#160;Module</text>
<polygon fill="#80b1d3" stroke="transparent" points="567.5,-10 567.5,-30 587.5,-30 587.5,-10 567.5,-10"/>
<text text-anchor="start" x="591.2812" y="-15.4" font-family="sans-serif" font-size="14.00" fill="#000000"> &#160;Bootstrap</text>
<polygon fill="#fdb462" stroke="transparent" points="664.5,-10 664.5,-30 684.5,-30 684.5,-10 664.5,-10"/>
<text text-anchor="start" x="688.1732" y="-15.4" font-family="sans-serif" font-size="14.00" fill="#000000"> &#160;Providers</text>
<polygon fill="#fb8072" stroke="transparent" points="760.5,-10 760.5,-30 780.5,-30 780.5,-10 760.5,-10"/>
<text text-anchor="start" x="784.2258" y="-15.4" font-family="sans-serif" font-size="14.00" fill="#000000"> &#160;Exports</text>
<g id="clust1" class="cluster">
<title>cluster_ReviewUnitModule</title>
<polygon fill="none" stroke="#000000" stroke-dasharray="1,5" points="8,-70 8,-195 1197,-195 1197,-70 8,-70"/>
</g>
<g id="clust2" class="cluster">
<title>cluster_ReviewUnitModule_declarations</title>
<polygon fill="none" stroke="#000000" points="138,-78 138,-130 1189,-130 1189,-78 138,-78"/>
</g>
<g id="clust9" class="cluster">
<title>cluster_ReviewUnitModule_imports</title>
<polygon fill="none" stroke="#000000" points="16,-78 16,-130 130,-130 130,-78 16,-78"/>
</g>
<!-- DropZoneDirective -->
<g id="node1" class="node">
<title>DropZoneDirective</title>
<polygon fill="#ffffb3" stroke="#000000" points="1180.6178,-122 1055.3822,-122 1055.3822,-86 1180.6178,-86 1180.6178,-122"/>
<text text-anchor="middle" x="1118" y="-99.8" font-family="Times,serif" font-size="14.00" fill="#000000">DropZoneDirective</text>
</g>
<!-- ReviewUnitModule -->
<g id="node7" class="node">
<title>ReviewUnitModule</title>
<polygon fill="#8dd3c7" stroke="#000000" points="606.7008,-187 603.7008,-191 582.7008,-191 579.7008,-187 479.2992,-187 479.2992,-151 606.7008,-151 606.7008,-187"/>
<text text-anchor="middle" x="543" y="-164.8" font-family="Times,serif" font-size="14.00" fill="#000000">ReviewUnitModule</text>
</g>
<!-- DropZoneDirective&#45;&gt;ReviewUnitModule -->
<g id="edge1" class="edge">
<title>DropZoneDirective&#45;&gt;ReviewUnitModule</title>
<path fill="none" stroke="#000000" d="M1118,-122.2921C1118,-144.2057 1118,-178 1118,-178 1118,-178 616.732,-178 616.732,-178"/>
<polygon fill="#000000" stroke="#000000" points="616.7321,-174.5001 606.732,-178 616.732,-181.5001 616.7321,-174.5001"/>
</g>
<!-- ReviewUnitCreateComponent -->
<g id="node2" class="node">
<title>ReviewUnitCreateComponent</title>
<polygon fill="#ffffb3" stroke="#000000" points="1036.5154,-122 851.4846,-122 851.4846,-86 1036.5154,-86 1036.5154,-122"/>
<text text-anchor="middle" x="944" y="-99.8" font-family="Times,serif" font-size="14.00" fill="#000000">ReviewUnitCreateComponent</text>
</g>
<!-- ReviewUnitCreateComponent&#45;&gt;ReviewUnitModule -->
<g id="edge2" class="edge">
<title>ReviewUnitCreateComponent&#45;&gt;ReviewUnitModule</title>
<path fill="none" stroke="#000000" d="M944,-122.1061C944,-141.3391 944,-169 944,-169 944,-169 616.983,-169 616.983,-169"/>
<polygon fill="#000000" stroke="#000000" points="616.9831,-165.5001 606.983,-169 616.983,-172.5001 616.9831,-165.5001"/>
</g>
<!-- ReviewUnitPreviewComponent -->
<g id="node3" class="node">
<title>ReviewUnitPreviewComponent</title>
<polygon fill="#ffffb3" stroke="#000000" points="833.3529,-122 638.6471,-122 638.6471,-86 833.3529,-86 833.3529,-122"/>
<text text-anchor="middle" x="736" y="-99.8" font-family="Times,serif" font-size="14.00" fill="#000000">ReviewUnitPreviewComponent</text>
</g>
<!-- ReviewUnitPreviewComponent&#45;&gt;ReviewUnitModule -->
<g id="edge3" class="edge">
<title>ReviewUnitPreviewComponent&#45;&gt;ReviewUnitModule</title>
<path fill="none" stroke="#000000" d="M736,-122.027C736,-138.3976 736,-160 736,-160 736,-160 616.7303,-160 616.7303,-160"/>
<polygon fill="#000000" stroke="#000000" points="616.7303,-156.5001 606.7303,-160 616.7303,-163.5001 616.7303,-156.5001"/>
</g>
<!-- ReviewUnitsComponent -->
<g id="node4" class="node">
<title>ReviewUnitsComponent</title>
<polygon fill="#ffffb3" stroke="#000000" points="620.4284,-122 465.5716,-122 465.5716,-86 620.4284,-86 620.4284,-122"/>
<text text-anchor="middle" x="543" y="-99.8" font-family="Times,serif" font-size="14.00" fill="#000000">ReviewUnitsComponent</text>
</g>
<!-- ReviewUnitsComponent&#45;&gt;ReviewUnitModule -->
<g id="edge4" class="edge">
<title>ReviewUnitsComponent&#45;&gt;ReviewUnitModule</title>
<path fill="none" stroke="#000000" d="M543,-122.1061C543,-122.1061 543,-140.991 543,-140.991"/>
<polygon fill="#000000" stroke="#000000" points="539.5001,-140.9909 543,-150.991 546.5001,-140.991 539.5001,-140.9909"/>
</g>
<!-- UploadTaskComponent -->
<g id="node5" class="node">
<title>UploadTaskComponent</title>
<polygon fill="#ffffb3" stroke="#000000" points="447.7562,-122 298.2438,-122 298.2438,-86 447.7562,-86 447.7562,-122"/>
<text text-anchor="middle" x="373" y="-99.8" font-family="Times,serif" font-size="14.00" fill="#000000">UploadTaskComponent</text>
</g>
<!-- UploadTaskComponent&#45;&gt;ReviewUnitModule -->
<g id="edge5" class="edge">
<title>UploadTaskComponent&#45;&gt;ReviewUnitModule</title>
<path fill="none" stroke="#000000" d="M373,-122.027C373,-138.3976 373,-160 373,-160 373,-160 469.2146,-160 469.2146,-160"/>
<polygon fill="#000000" stroke="#000000" points="469.2146,-163.5001 479.2146,-160 469.2146,-156.5001 469.2146,-163.5001"/>
</g>
<!-- UploaderComponent -->
<g id="node6" class="node">
<title>UploaderComponent</title>
<polygon fill="#ffffb3" stroke="#000000" points="279.9201,-122 146.0799,-122 146.0799,-86 279.9201,-86 279.9201,-122"/>
<text text-anchor="middle" x="213" y="-99.8" font-family="Times,serif" font-size="14.00" fill="#000000">UploaderComponent</text>
</g>
<!-- UploaderComponent&#45;&gt;ReviewUnitModule -->
<g id="edge6" class="edge">
<title>UploaderComponent&#45;&gt;ReviewUnitModule</title>
<path fill="none" stroke="#000000" d="M213,-122.1061C213,-141.3391 213,-169 213,-169 213,-169 469.3727,-169 469.3727,-169"/>
<polygon fill="#000000" stroke="#000000" points="469.3727,-172.5001 479.3727,-169 469.3726,-165.5001 469.3727,-172.5001"/>
</g>
<!-- SharedModule -->
<g id="node8" class="node">
<title>SharedModule</title>
<polygon fill="#8dd3c7" stroke="#000000" points="122.4231,-122 119.4231,-126 98.4231,-126 95.4231,-122 23.5769,-122 23.5769,-86 122.4231,-86 122.4231,-122"/>
<text text-anchor="middle" x="73" y="-99.8" font-family="Times,serif" font-size="14.00" fill="#000000">SharedModule</text>
</g>
<!-- SharedModule&#45;&gt;ReviewUnitModule -->
<g id="edge7" class="edge">
<title>SharedModule&#45;&gt;ReviewUnitModule</title>
<path fill="none" stroke="#000000" d="M73,-122.2921C73,-144.2057 73,-178 73,-178 73,-178 469.1246,-178 469.1246,-178"/>
<polygon fill="#000000" stroke="#000000" points="469.1246,-181.5001 479.1246,-178 469.1245,-174.5001 469.1246,-181.5001"/>
</g>
</g>
</svg>
